Chapter4 Verbs part 1: Select and filter | book-example.utf8.md
…
opioid_calls %>%
  filter (age %in% c("20 to 24", "25 to 29")) 

4.4 Arrange - change the order

“Arrange” is the equivalent of “Sort” in a spreadsheet - it’s more precise in its meaning, and instructs R to re-arrange the rows of a data frame using the order identified in one or more columns. Try to piece together what this does:

opioid_calls %>%
  select (dow, narcan, age, gender, asu_yn) %>%
  filter (dow %in% c("(6) Saturday", "(7) Sunday")  &
            narcan == "Yes") %>%
  arrange ( age )

## # A tibble: 116 x 5
##    dow          narcan age      gender asu_yn 
##    <chr>        <chr>  <chr>    <chr>  <chr>  
##  1 (7) Sunday   Yes    15 to 19 Male   Unknown
##  2 (7) Sunday   Yes    15 to 19 Male   Yes    
##  3 (6) Saturday Yes    15 to 19 Male   No     
##  4 (6) Saturday Yes    15 to 19 Female Unknown
##  5 (6) Saturday Yes    15 to 19 Male   No     
##  6 (7) Sunday   Yes    15 to 19 Female Unknown
##  7 (6) Saturday Yes    15 to 19 Female Unknown
##  8 (7) Sunday   Yes    15 to 19 Male   No     
##  9 (6) Saturday Yes    15 to 19 Female No     
## 10 (6) Saturday Yes    20 to 24 Female Unknown
## # … with 106 more rows
…
