Chapter5 Verbs 2: group_by and summarise | book-example.utf8.md
…
You can group by more than one variable. For instance, I may want to look at weapon useage by state:

murders %>%
  group_by (weapon,  state) %>%
  summarise (num_of_murders = n() )  %>%
  arrange ( weapon, state )

## # A tibble: 67 x 3
## # Groups:   weapon [17]
##    weapon                          state      num_of_murders
##    <fct>                           <fct>               <int>
##  1 Firearm, type not stated        Arizona               742
##  2 Firearm, type not stated        Idaho                  62
##  3 Firearm, type not stated        Oregon                368
##  4 Firearm, type not stated        Washington            393
##  5 Handgun - pistol, revolver, etc Arizona              7826
##  6 Handgun - pistol, revolver, etc Idaho                 531
##  7 Handgun - pistol, revolver, etc Oregon               1650
##  8 Handgun - pistol, revolver, etc Washington           3765
##  9 Rifle                           Arizona               698
## 10 Rifle                           Idaho                 157
## # … with 57 more rows
…
5.3.3 Optional: Subtotals

R has powerful ways to look at data with group by commands, including calculating subtotals from a grouped query. Here’s an example, in which we calculate the total number of murders next to the murder by weapon:

murders %>%
  group_by (state, weapon) %>%
  summarise (num_of_murders = n() ) %>%
  # this is a new verb you haven't seen yet! 
  mutate  ( num_murders_in_state  = sum(num_of_murders) ) %>% 
  arrange ( weapon)

## # A tibble: 67 x 4
## # Groups:   state [4]
##    state      weapon                     num_of_murders num_murders_in_sta…
##    <fct>      <fct>                               <int>               <int>
##  1 Arizona    Firearm, type not stated              742               14484
##  2 Idaho      Firearm, type not stated               62                1430
##  3 Oregon     Firearm, type not stated              368                4850
##  4 Washington Firearm, type not stated              393                8891
##  5 Arizona    Handgun - pistol, revolve…           7826               14484
##  6 Idaho      Handgun - pistol, revolve…            531                1430
##  7 Oregon     Handgun - pistol, revolve…           1650                4850
##  8 Washington Handgun - pistol, revolve…           3765                8891
##  9 Arizona    Rifle                                 698               14484
## 10 Idaho      Rifle                                 157                1430
## # … with 57 more rows
…
